Running from: C:\Users\Bryon\AppData\Local\Temp\tmpdrip9i24 
Command: D:\models\Mwmbuilder\MwmBuilder.exe /s:Content /m:PistonTop3x3Small_Constr1.fbx /o:.\ 
INFO: 
Material libraries were loaded from path:  !

PROCESSED: 
C:\Users\Bryon\AppData\Local\Temp\tmpdrip9i24\Content\PistonTop3x3Small_Constr1.fbx
: Finished in 0.9s

